Data Manipulation
…
abstract the interface between the data manipulation operations and the data source.

dplyr operates on data frames, but it also operates on tibbles, a trimmed-down version of a data frame (tbl_df) that provides better checking and printing. Tibbles are particularly good for large data sets since they only print the first 10 rows and the first 7 columns by default although additional information is provided about the rows and columns.

The real power of dplyr is that it abstracts the data source, i.e., whether it is a data frame, a database, or Spark.

All the dplyr vignettes use the nycflights13 data frame which contains the 336,776 flights that departed from New York City in 2013. The flights data set is one of several data sets that can be merged.

dim(flights)

## [1] 336776     19

flights # or print(flights)

## # A tibble: 336,776 x 19
##     year month   day dep_time sched_dep_time dep_delay arr_time
##    <int> <int> <int>    <int>          <int>     <dbl>    <int>
##  1  2013     1     1      517            515        2.      830
##  2  2013     1     1      533            529        4.      850
##  3  2013     1     1      542            540        2.      923
##  4  2013     1     1      544            545       -1.     1004
##  5  2013     1     1      554            600       -6.      812
##  6  2013     1     1      554            558       -4.      740
##  7  2013     1     1      555            600       -5.      913
##  8  2013     1     1      557            600       -3.      709
##  9  2013     1     1      557            600       -3.      838
## 10  2013     1     1      558            600       -2.      753
## # ... with 336,766 more rows, and 12 more variables: sched_arr_time <int>,
## #   arr_delay <dbl>, carrier <chr>, flight <int>, tailnum <chr>,
## #   origin <chr>, dest <chr>, air_time <dbl>, distance <dbl>, hour <dbl>,
## #   minute <dbl>, time_hour <dttm>
…
distinct: find unique values in a table;

mutate: add new columns to a data frame;

summarise: collapses a data frame to a single row;

sample_n: take a random sample of rows.

filter() allows the selection of rows using Boolean operations, e.g., & or |.

# The following is equivalent to filter(flights, month == 1, day == 1).
filter(flights, month == 1 & day == 1)

## # A tibble: 842 x 19
##     year month   day dep_time sched_dep_time dep_delay arr_time
##    <int> <int> <int>    <int>          <int>     <dbl>    <int>
##  1  2013     1     1      517            515        2.      830
##  2  2013     1     1      533            529        4.      850
##  3  2013     1     1      542            540        2.      923
##  4  2013     1     1      544            545       -1.     1004
##  5  2013     1     1      554            600       -6.      812
##  6  2013     1     1      554            558       -4.      740
##  7  2013     1     1      555            600       -5.      913
##  8  2013     1     1      557            600       -3.      709
##  9  2013     1     1      557            600       -3.      838
## 10  2013     1     1      558            600       -2.      753
## # ... with 832 more rows, and 12 more variables: sched_arr_time <int>,
## #   arr_delay <dbl>, carrier <chr>, flight <int>, tailnum <chr>,
## #   origin <chr>, dest <chr>, air_time <dbl>, distance <dbl>, hour <dbl>,
## #   minute <dbl>, time_hour <dttm>

# In base R this would be done as:
# flights[flights$month == 1 & flights$day == 1, ]
filter(flights, month == 1 | month == 2)

## # A tibble: 51,955 x 19
##     year month   day dep_time sched_dep_time dep_delay arr_time
##    <int> <int> <int>    <int>          <int>     <dbl>    <int>
##  1  2013     1     1      517            515        2.      830
##  2  2013     1     1      533            529        4.      850
##  3  2013     1     1      542            540        2.      923
##  4  2013     1     1      544            545       -1.     1004
##  5  2013     1     1      554            600       -6.      812
##  6  2013     1     1      554            558       -4.      740
##  7  2013     1     1      555            600       -5.      913
##  8  2013     1     1      557            600       -3.      709
##  9  2013     1     1      557            600       -3.      838
## 10  2013     1     1      558            600       -2.      753
## # ... with 51,945 more rows, and 12 more variables: sched_arr_time <int>,
## #   arr_delay <dbl>, carrier <chr>, flight <int>, tailnum <chr>,
## #   origin <chr>, dest <chr>, air_time <dbl>, distance <dbl>, hour <dbl>,
## #   minute <dbl>, time_hour <dttm>
…
arrange() orders a data frame by a set of column names (or more complicated expressions). If you provide more than one column name, each additional column will be used to break ties in the values of preceding columns:

arrange(flights, dep_delay)

## # A tibble: 336,776 x 19
##     year month   day dep_time sched_dep_time dep_delay arr_time
##    <int> <int> <int>    <int>          <int>     <dbl>    <int>
##  1  2013    12     7     2040           2123      -43.       40
##  2  2013     2     3     2022           2055      -33.     2240
##  3  2013    11    10     1408           1440      -32.     1549
##  4  2013     1    11     1900           1930      -30.     2233
##  5  2013     1    29     1703           1730      -27.     1947
##  6  2013     8     9      729            755      -26.     1002
##  7  2013    10    23     1907           1932      -25.     2143
##  8  2013     3    30     2030           2055      -25.     2213
##  9  2013     3     2     1431           1455      -24.     1601
## 10  2013     5     5      934            958      -24.     1225
## # ... with 336,766 more rows, and 12 more variables: sched_arr_time <int>,
## #   arr_delay <dbl>, carrier <chr>, flight <int>, tailnum <chr>,
## #   origin <chr>, dest <chr>, air_time <dbl>, distance <dbl>, hour <dbl>,
## #   minute <dbl>, time_hour <dttm>

# Or with `arr_delay` descending:
arrange(flights, desc(dep_delay))

## # A tibble: 336,776 x 19
##     year month   day dep_time sched_dep_time dep_delay arr_time
##    <int> <int> <int>    <int>          <int>     <dbl>    <int>
##  1  2013     1     9      641            900     1301.     1242
##  2  2013     6    15     1432           1935     1137.     1607
##  3  2013     1    10     1121           1635     1126.     1239
##  4  2013     9    20     1139           1845     1014.     1457
##  5  2013     7    22      845           1600     1005.     1044
##  6  2013     4    10     1100           1900      960.     1342
##  7  2013     3    17     2321            810      911.      135
##  8  2013     6    27      959           1900      899.     1236
##  9  2013     7    22     2257            759      898.      121
## 10  2013    12     5      756           1700      896.     1058
## # ... with 336,766 more rows, and 12 more variables: sched_arr_time <int>,
## #   arr_delay <dbl>, carrier <chr>, flight <int>, tailnum <chr>,
## #   origin <chr>, dest <chr>, air_time <dbl>, distance <dbl>, hour <dbl>,
## #   minute <dbl>, time_hour <dttm>

select() allows you to focus on the variables of interest:

# Select columns by name
select(flights, year, month, day)

## # A tibble: 336,776 x 3
##     year month   day
##    <int> <int> <int>
##  1  2013     1     1
##  2  2013     1     1
##  3  2013     1     1
##  4  2013     1     1
##  5  2013     1     1
##  6  2013     1     1
##  7  2013     1     1
##  8  2013     1     1
##  9  2013     1     1
## 10  2013     1     1
## # ... with 336,766 more rows

# Select all columns between year and day (inclusive)
select(flights, year:day)

## # A tibble: 336,776 x 3
##     year month   day
##    <int> <int> <int>
##  1  2013     1     1
##  2  2013     1     1
##  3  2013     1     1
##  4  2013     1     1
##  5  2013     1     1
##  6  2013     1     1
##  7  2013     1     1
##  8  2013     1     1
##  9  2013     1     1
## 10  2013     1     1
## # ... with 336,766 more rows

# Select all columns except those from year to day (inclusive)
select(flights, -(year:day))

## # A tibble: 336,776 x 16
##    dep_time sched_dep_time dep_delay arr_time sched_arr_time arr_delay
##       <int>          <int>     <dbl>    <int>          <int>     <dbl>
##  1      517            515        2.      830            819       11.
##  2      533            529        4.      850            830       20.
##  3      542            540        2.      923            850       33.
##  4      544            545       -1.     1004           1022      -18.
##  5      554            600       -6.      812            837      -25.
##  6      554            558       -4.      740            728       12.
##  7      555            600       -5.      913            854       19.
##  8      557            600       -3.      709            723      -14.
##  9      557            600       -3.      838            846       -8.
## 10      558            600       -2.      753            745        8.
## # ... with 336,766 more rows, and 10 more variables: carrier <chr>,
## #   flight <int>, tailnum <chr>, origin <chr>, dest <chr>, air_time <dbl>,
## #   distance <dbl>, hour <dbl>, minute <dbl>, time_hour <dttm>

dplyr::select() is similar to base::select(), but is included in dplyr to have a comprehensive, consistent architecture for data manipulation.

It is possible to rename variables with select, but rename is a better choice since select drops any unnamed variables:

rename(flights, tail_num = tailnum)

## # A tibble: 336,776 x 19
##     year month   day dep_time sched_dep_time dep_delay arr_time
##    <int> <int> <int>    <int>          <int>     <dbl>    <int>
##  1  2013     1     1      517            515        2.      830
##  2  2013     1     1      533            529        4.      850
##  3  2013     1     1      542            540        2.      923
##  4  2013     1     1      544            545       -1.     1004
##  5  2013     1     1      554            600       -6.      812
##  6  2013     1     1      554            558       -4.      740
##  7  2013     1     1      555            600       -5.      913
##  8  2013     1     1      557            600       -3.      709
##  9  2013     1     1      557            600       -3.      838
## 10  2013     1     1      558            600       -2.      753
## # ... with 336,766 more rows, and 12 more variables: sched_arr_time <int>,
## #   arr_delay <dbl>, carrier <chr>, flight <int>, tail_num <chr>,
## #   origin <chr>, dest <chr>, air_time <dbl>, distance <dbl>, hour <dbl>,
## #   minute <dbl>, time_hour <dttm>

distinct() finds unique values in a table:

distinct(flights, tailnum)

## # A tibble: 4,044 x 1
##    tailnum
##    <chr>  
##  1 N14228 
##  2 N24211 
##  3 N619AA 
##  4 N804JB 
##  5 N668DN 
##  6 N39463 
##  7 N516JB 
##  8 N829AS 
##  9 N593JB 
## 10 N3ALAA 
## # ... with 4,034 more rows

distinct(flights, origin, dest)

## # A tibble: 224 x 2
##    origin dest 
##    <chr>  <chr>
##  1 EWR    IAH  
##  2 LGA    IAH  
##  3 JFK    MIA  
##  4 JFK    BQN  
##  5 LGA    ATL  
##  6 EWR    ORD  
##  7 EWR    FLL  
##  8 LGA    IAD  
##  9 JFK    MCO  
## 10 LGA    ORD  
## # ... with 214 more rows

This is similar to base::unique() but is faster.

mutate() transforms variables, i.e., adds new columns that are functions of existing columns.

mutate(flights,
       gain = arr_delay - dep_delay,
       speed = distance / air_time * 60)

## # A tibble: 336,776 x 21
##     year month   day dep_time sched_dep_time dep_delay arr_time
##    <int> <int> <int>    <int>          <int>     <dbl>    <int>
##  1  2013     1     1      517            515        2.      830
##  2  2013     1     1      533            529        4.      850
##  3  2013     1     1      542            540        2.      923
##  4  2013     1     1      544            545       -1.     1004
##  5  2013     1     1      554            600       -6.      812
##  6  2013     1     1      554            558       -4.      740
##  7  2013     1     1      555            600       -5.      913
##  8  2013     1     1      557            600       -3.      709
##  9  2013     1     1      557            600       -3.      838
## 10  2013     1     1      558            600       -2.      753
## # ... with 336,766 more rows, and 14 more variables: sched_arr_time <int>,
## #   arr_delay <dbl>, carrier <chr>, flight <int>, tailnum <chr>,
## #   origin <chr>, dest <chr>, air_time <dbl>, distance <dbl>, hour <dbl>,
## #   minute <dbl>, time_hour <dttm>, gain <dbl>, speed <dbl>

dplyr::mutate() works similarly to base::transform(), but transform() does not allow you to refer to columns that youve just created. For example, the following would not work with transform(), since the second argument depends on the first:

mutate(flights,
       gain = arr_delay - dep_delay,
       gain_per_hour = gain / (air_time / 60))

## # A tibble: 336,776 x 21
##     year month   day dep_time sched_dep_time dep_delay arr_time
##    <int> <int> <int>    <int>          <int>     <dbl>    <int>
##  1  2013     1     1      517            515        2.      830
##  2  2013     1     1      533            529        4.      850
##  3  2013     1     1      542            540        2.      923
##  4  2013     1     1      544            545       -1.     1004
##  5  2013     1     1      554            600       -6.      812
##  6  2013     1     1      554            558       -4.      740
##  7  2013     1     1      555            600       -5.      913
##  8  2013     1     1      557            600       -3.      709
##  9  2013     1     1      557            600       -3.      838
## 10  2013     1     1      558            600       -2.      753
## # ... with 336,766 more rows, and 14 more variables: sched_arr_time <int>,
## #   arr_delay <dbl>, carrier <chr>, flight <int>, tailnum <chr>,
## #   origin <chr>, dest <chr>, air_time <dbl>, distance <dbl>, hour <dbl>,
## #   minute <dbl>, time_hour <dttm>, gain <dbl>, gain_per_hour <dbl>

Note: The new variables are not actually part of flights as can be seen by printing flights, but the new tibble can be used as part of a workflow. Alternately, a new tibble, e.g., flights_gain could be created by: flights_gain <- mutate(...).

If you only want to keep the new variables, use transmute():

transmute(flights,
          gain = arr_delay - dep_delay,
          gain_per_hour = gain / (air_time / 60)
)

## # A tibble: 336,776 x 2
##     gain gain_per_hour
##    <dbl>         <dbl>
##  1    9.          2.38
##  2   16.          4.23
##  3   31.         11.6 
##  4  -17.         -5.57
##  5  -19.         -9.83
##  6   16.          6.40
##  7   24.          9.11
##  8  -11.        -12.5 
##  9   -5.         -2.14
## 10   10.          4.35
## # ... with 336,766 more rows
…
sample_frac(flights, 0.01)

## # A tibble: 3,368 x 19
##     year month   day dep_time sched_dep_time dep_delay arr_time
##    <int> <int> <int>    <int>          <int>     <dbl>    <int>
##  1  2013     5    17     1304           1309       -5.     1426
##  2  2013     5    14     1224           1159       25.     1500
##  3  2013    11    22      953           1000       -7.     1111
##  4  2013     9    30     1354           1359       -5.     1551
##  5  2013    10    25      926            929       -3.     1226
##  6  2013     7    31      701            655        6.      821
##  7  2013     6    19      640            645       -5.      858
##  8  2013     4    24     1329           1329        0.     1504
##  9  2013     2    25     1726           1729       -3.     1847
## 10  2013     8    20      758            801       -3.     1008
## # ... with 3,358 more rows, and 12 more variables: sched_arr_time <int>,
## #   arr_delay <dbl>, carrier <chr>, flight <int>, tailnum <chr>,
## #   origin <chr>, dest <chr>, air_time <dbl>, distance <dbl>, hour <dbl>,
## #   minute <dbl>, time_hour <dttm>
…
3.1.2 Grouped Operations

These above verbs become very powerful when you apply them to groups of observations within a dataset. In dplyr, this is done by the group_by() function. It breaks a dataset into specified groups of rows. When you then apply the verbs above on the resulting object theyll be automatically applied by group.

We now split the complete dataset into individual planes and then summarise each plane by counting the number of flights (count = n()) and computing the average distance (dist = mean(distance, na.rm = TRUE)) and arrival delay (delay = mean(arr_delay, na.rm = TRUE))

by_tailnum <- group_by(flights, tailnum)
delay <- summarise(by_tailnum,
  count = n(),
  dist = mean(distance, na.rm = TRUE),
  delay = mean(arr_delay, na.rm = TRUE))
delay <- filter(delay, count > 20, dist < 2000)
delay

## # A tibble: 2,962 x 4
##    tailnum count  dist   delay
##    <chr>   <int> <dbl>   <dbl>
##  1 N0EGMQ    371  676.   9.98 
##  2 N10156    153  758.  12.7  
##  3 N102UW     48  536.   2.94 
##  4 N103US     46  535.  -6.93 
##  5 N104UW     47  535.   1.80 
##  6 N10575    289  520.  20.7  
##  7 N105UW     45  525.  -0.267
##  8 N107US     41  529.  -5.73 
##  9 N108UW     60  534.  -1.25 
## 10 N109UW     48  536.  -2.52 
## # ... with 2,952 more rows
…
n_distinct(x): the number of unique values in x;

first(x), last(x), and nth(x, n): the first, last, and nth observation in x.

You can also use your own functions.

For example, we could use these to find the number of planes and the number of flights that go to each possible destination:

destinations <- group_by(flights, dest)
summarise(destinations,
  planes = n_distinct(tailnum),
  flights = n()
)

## # A tibble: 105 x 3
##    dest  planes flights
##    <chr>  <int>   <int>
##  1 ABQ      108     254
##  2 ACK       58     265
##  3 ALB      172     439
##  4 ANC        6       8
##  5 ATL     1180   17215
##  6 AUS      993    2439
##  7 AVL      159     275
##  8 BDL      186     443
##  9 BGR       46     375
## 10 BHM       45     297
## # ... with 95 more rows

When you group by multiple variables, each summary peels off one level of the grouping. Thus, you can progressively roll-up a dataset:

daily <- group_by(flights, year, month, day)
(per_day   <- summarise(daily, flights = n()))

## # A tibble: 365 x 4
## # Groups:   year, month [?]
##     year month   day flights
##    <int> <int> <int>   <int>
##  1  2013     1     1     842
##  2  2013     1     2     943
##  3  2013     1     3     914
##  4  2013     1     4     915
##  5  2013     1     5     720
##  6  2013     1     6     832
##  7  2013     1     7     933
##  8  2013     1     8     899
##  9  2013     1     9     902
## 10  2013     1    10     932
## # ... with 355 more rows
…
The dplyr API is functional, i.e., the function calls dont have side-effects. That means you must always save intermediate results, which doesnt lead to elegant code. You either have to do it step-by-step:

a1 <- group_by(flights, year, month, day)
a2 <- select(a1, arr_delay, dep_delay)

## Adding missing grouping variables: `year`, `month`, `day`

a3 <- summarise(a2,
  arr = mean(arr_delay, na.rm = TRUE),
  dep = mean(dep_delay, na.rm = TRUE))
a4 <- filter(a3, arr > 30 | dep > 30)
a4

## # A tibble: 49 x 5
## # Groups:   year, month [11]
##     year month   day   arr   dep
##    <int> <int> <int> <dbl> <dbl>
##  1  2013     1    16  34.2  24.6
##  2  2013     1    31  32.6  28.7
##  3  2013     2    11  36.3  39.1
##  4  2013     2    27  31.3  37.8
##  5  2013     3     8  85.9  83.5
##  6  2013     3    18  41.3  30.1
##  7  2013     4    10  38.4  33.0
##  8  2013     4    12  36.0  34.8
##  9  2013     4    18  36.0  34.9
## 10  2013     4    19  47.9  46.1
## # ... with 39 more rows
…
